[gd_scene load_steps=3 format=2]

[ext_resource path="res://scenes/grid/Grid.gd" type="Script" id=1]
[ext_resource path="res://scenes/grid/GridVisualizer.gd" type="Script" id=2]

[node name="Grid" type="TileMap"]
cell_size = Vector2( 32, 32 )
format = 1
script = ExtResource( 1 )

[node name="GridVisualizer" type="Node2D" parent="."]
script = ExtResource( 2 )

