[gd_scene load_steps=3 format=2]

[ext_resource path="res://ui/WendyOne-Regular.ttf" type="DynamicFontData" id=1]

[sub_resource type="DynamicFont" id=1]
size = 50
use_mipmaps = true
use_filter = true
font_data = ExtResource( 1 )

[node name="HUD" type="Control"]
anchor_right = 1.0
anchor_bottom = 1.0

[node name="SnakeLength" type="Label" parent="."]
anchor_left = 0.5
anchor_right = 0.5
margin_left = -20.0
margin_right = 20.0
margin_bottom = 14.0
custom_fonts/font = SubResource( 1 )
text = "5"
align = 1

